seed_generating/hive/GetTweetsInfoFromHive$2$1.class
seed_generating/hive/GetTweetsInfoFromHive$5.class
seed_generating/hive/GetTweetsInfoFromHive$6.class
seed_generating/core/SeedGenerating.class
seed_generating/hive/GetTweetsInfoFromHive$3.class
seed_generating/utils/Pair.class
seed_generating/hive/GetTweetsInfoFromHive.class
seed_generating/hive/GetTweetsInfoFromHive$1.class
seed_generating/core/SeedGenerating$Parameters.class
seed_generating/hive/GetTweetsInfoFromHive$4.class
seed_generating/hive/GetTweetsInfoFromHive$2.class
